{
    "version": "102009",
    "description": "A complete, cross-platform solution to record, convert and stream audio and video.",
    "homepage": "https://ffmpeg.org",
    "license": "GPL-3.0-or-later",
    "architecture": {
        "64bit": {
            "url": "https://github.com/BtbN/FFmpeg-Builds/releases/download/autobuild-2021-04-23-12-39/ffmpeg-N-102009-gefdb564504-win64-gpl-shared.zip",
            "hash": "3b0f223e97290c811792e54a613b889b21d2020cd05fe24b41a22ecd6c387983",
            "extract_dir": "ffmpeg-N-102009-gefdb564504-win64-gpl-shared"
        }
    },
    "bin": [
        "bin\\ffmpeg.exe",
        "bin\\ffplay.exe",
        "bin\\ffprobe.exe"
    ],
    "checkver": {
        "github": "https://github.com/BtbN/FFmpeg-Builds",
        "regex": "/autobuild-(?<time>[\\d-]+)/ffmpeg-N-(\\d+)-g(?<hash>[a-z\\d]+)-win64-gpl-shared\\.zip"
    },
    "autoupdate": {
        "architecture": {
            "64bit": {
                "url": "https://github.com/BtbN/FFmpeg-Builds/releases/download/autobuild-$matchTime/ffmpeg-N-$version-g$matchHash-win64-gpl-shared.zip",
                "extract_dir": "ffmpeg-N-$version-g$matchHash-win64-gpl-shared"
            }
        }
    }
}
